[gd_resource type="ShaderMaterial" load_steps=3 format=2]

[sub_resource type="VisualShaderNodeInput" id=1]
input_name = "normal"

[sub_resource type="VisualShader" id=2]
code = "shader_type spatial;
render_mode unshaded;




void vertex() {
// Output:0

}

void fragment() {
// Input:3
	vec3 n_out3p0;
	n_out3p0 = NORMAL;

// Output:0
	ALBEDO = n_out3p0;

}

void light() {
// Output:0

}
"
graph_offset = Vector2( -237, 119 )
flags/unshaded = true
nodes/fragment/3/node = SubResource( 1 )
nodes/fragment/3/position = Vector2( -260, 220 )
nodes/fragment/connections = PoolIntArray( 3, 0, 0, 0 )

[resource]
shader = SubResource( 2 )

